StripConfig                   1.2
Strip.Time.Timespan           960
Strip.Time.NumSamples         7200
Strip.Time.SampleInterval     0.100000
Strip.Time.RefreshInterval    0.100000
Strip.Color.Background        0         0         0         
Strip.Color.Foreground        65535     65535     65535     
Strip.Color.Grid              36751     34181     34181     
Strip.Color.Color1            0         0         65535     
Strip.Color.Color2            27499     36494     8995      
Strip.Color.Color3            42405     10794     10794     
Strip.Color.Color4            24415     40606     41120     
Strip.Color.Color5            65535     42405     0         
Strip.Color.Color6            41120     8224      61680     
Strip.Color.Color7            65535     0         0         
Strip.Color.Color8            65535     55255     0         
Strip.Color.Color9            48316     36751     36751     
Strip.Color.Color10           39578     52685     12850     
Strip.Option.GridXon          2
Strip.Option.GridYon          2
Strip.Option.AxisYcolorStat   0
Strip.Option.GraphLineWidth   2
Strip.Curve.0.Name            C3:PSL-SCAV_TRANS_DC
Strip.Curve.1.Name            C3:PSL-PLL_CONTROL_SIGNAL
Strip.Curve.2.Name            C3:PSL-SCAV_FSS_FASTMON
Strip.Curve.3.Name            C3:PSL-NCAV_TRANS_DC
Strip.Curve.5.Name            C3:PSL-NCAV_FSS_FASTMON
Strip.Curve.7.Name            C3:PSL-SCAV_FSS_SLOWOUT
Strip.Curve.8.Name            C3:PSL-NCAV_FSS_SLOWOUT
Strip.Curve.0.Units           
Strip.Curve.1.Units           
Strip.Curve.2.Units           
Strip.Curve.3.Units           
Strip.Curve.5.Units           
Strip.Curve.7.Units           
Strip.Curve.8.Units           
Strip.Curve.0.Comment         
Strip.Curve.1.Comment         
Strip.Curve.2.Comment         
Strip.Curve.3.Comment         
Strip.Curve.5.Comment         
Strip.Curve.7.Comment         
Strip.Curve.8.Comment         
Strip.Curve.0.Precision       0
Strip.Curve.1.Precision       4
Strip.Curve.2.Precision       0
Strip.Curve.3.Precision       0
Strip.Curve.5.Precision       0
Strip.Curve.7.Precision       4
Strip.Curve.8.Precision       4
Strip.Curve.0.Min              0
Strip.Curve.1.Min             -3.0000
Strip.Curve.2.Min              0
Strip.Curve.3.Min              0
Strip.Curve.5.Min              0
Strip.Curve.7.Min             -6.0439
Strip.Curve.8.Min              3.5499
Strip.Curve.0.Max              0
Strip.Curve.1.Max              3.0000
Strip.Curve.2.Max              1
Strip.Curve.3.Max              0
Strip.Curve.5.Max              2
Strip.Curve.7.Max             -6.0434
Strip.Curve.8.Max              3.5697
Strip.Curve.0.Scale           0
Strip.Curve.1.Scale           0
Strip.Curve.2.Scale           0
Strip.Curve.3.Scale           0
Strip.Curve.5.Scale           0
Strip.Curve.7.Scale           0
Strip.Curve.8.Scale           0
Strip.Curve.0.PlotStatus      0
Strip.Curve.1.PlotStatus      1
Strip.Curve.2.PlotStatus      1
Strip.Curve.3.PlotStatus      0
Strip.Curve.5.PlotStatus      1
Strip.Curve.7.PlotStatus      0
Strip.Curve.8.PlotStatus      1
